{
    "reporting_entity_name": "Abc Inc",
    "reporting_entity_type": "ABC",
    "plan": [
        {
            "plan_name": "family life",
            "plan_id_type": "HIOS",
            "plan_id": "1234567543276",
            "plan_market_type": "group",
            "last_updated_on": "2021-07-26",
            "in_network": [
                {
                    "negotiation_arrangement": "bundle",
                    "name": "MASSAGE THERAPY",
                    "billing_code_type": "CPT",
                    "billing_code_type_version": "2021",
                    "billing_code": "97124",
                    "description": "Use of massage.",
                    "negotiated_rates": [
                        {
                            "providers": "1902143787",
                            "tin": "123456767",
                            "negotiated_price": {
                                "negotiated_type": "negotiated",
                                "negotiated_rate": "76",
                                "expiration_date": "2021-12-31"
                            }
                        },
                        {
                            "providers": "1578500443",
                            "tin": "123456787",
                            "negotiated_price": {
                                "negotiated_type": "negotiated",
                                "negotiated_rate": "48",
                                "expiration_date": "2021-12-31"
                            }
                        },
                        {
                            "providers": "1568980621",
                            "tin": "123456789",
                            "negotiated_price": {
                                "negotiated_type": "negotiated",
                                "negotiated_rate": "45",
                                "expiration_date": "2021-12-31"
                            }
                        },
                        {
                            "providers": "1316311202",
                            "tin": "123456789",
                            "negotiated_price": {
                                "negotiated_type": "negotiated",
                                "negotiated_rate": "49",
                                "expiration_date": "2021-12-31"
                            }
                        },
                        {
                            "providers": "1811908502",
                            "tin": "123456789",
                            "negotiated_price": {
                                "negotiated_type": "negotiated",
                                "negotiated_rate": "54",
                                "expiration_date": "2021-12-31"
                            }
                        },
                        {
                            "providers": "1922083948",
                            "tin": "123456789",
                            "negotiated_price": {
                                "negotiated_type": "negotiated",
                                "negotiated_rate": "55",
                                "expiration_date": "2021-12-31"
                            }
                        },
                        {
                            "providers": "1962435719",
                            "tin": "123456789",
                            "negotiated_price": {
                                "negotiated_type": "negotiated",
                                "negotiated_rate": "56",
                                "expiration_date": "2021-12-31"
                            }
                        },
                        {
                            "providers": "1962446831,1316336076",
                            "tin": "123456789",
                            "negotiated_price": {
                                "negotiated_type": "negotiated",
                                "negotiated_rate": "65",
                                "expiration_date": "2021-12-31"
                            }
                        },
                        {
                            "providers": "1003108325",
                            "tin": "123456789",
                            "negotiated_price": {
                                "negotiated_type": "negotiated",
                                "negotiated_rate": "73",
                                "expiration_date": "2021-12-31"
                            }
                        },
                        {
                            "providers": "1902143790",
                            "tin": "123456789",
                            "negotiated_price": {
                                "negotiated_type": "negotiated",
                                "negotiated_rate": "76",
                                "expiration_date": "2021-12-31"
                            }
                        },
                        {
                            "providers": "1902143716",
                            "tin": "123456789",
                            "negotiated_price": {
                                "negotiated_type": "negotiated",
                                "negotiated_rate": "77",
                                "expiration_date": "2021-12-31"
                            }
                        },
                        {
                            "providers": "1902143761",
                            "tin": "123456789",
                            "negotiated_price": {
                                "negotiated_type": "negotiated",
                                "negotiated_rate": "78",
                                "expiration_date": "2021-12-31"
                            }
                        }
                    ],
                    "bundled_codes": [
                        {
                            "billing_code_type": "CPT",
                            "billing_code_type_version": "2021",
                            "billing_code": "99173",
                            "description": "Eye test."
                        },
                        {
                            "billing_code_type": "CPT",
                            "billing_code_type_version": "2021",
                            "billing_code": "99244",
                            "description": "Patient office consultation, typically 60 min."
                        }
                    ]
                }
            ]
        },
        {
            "plan_name": "healthy life",
            "plan_id_type": "HIOS",
            "plan_id": "1234567543281",
            "plan_market_type": "group",
            "last_updated_on": "2021-07-26",
            "in_network": [
                {
                    "negotiation_arrangement": "bundle",
                    "name": "LIPID PANEL",
                    "billing_code_type": "CPT",
                    "billing_code_type_version": "2021",
                    "billing_code": "80061",
                    "description": "Blood test, lipids (cholesterol and triglycerides).",
                    "negotiated_rates": [
                        {
                            "providers": "1902143787",
                            "tin": "123456767",
                            "negotiated_price": {
                                "negotiated_type": "negotiated",
                                "negotiated_rate": "176",
                                "expiration_date": "2021-12-31"
                            }
                        },
                        {
                            "providers": "1578500443",
                            "tin": "123456787",
                            "negotiated_price": {
                                "negotiated_type": "negotiated",
                                "negotiated_rate": "176",
                                "expiration_date": "2021-12-31"
                            }
                        },
                        {
                            "providers": "1962435719",
                            "tin": "123456789",
                            "negotiated_price": {
                                "negotiated_type": "negotiated",
                                "negotiated_rate": "117",
                                "expiration_date": "2021-12-31"
                            }
                        },
                        {
                            "providers": "1922083948",
                            "tin": "123456789",
                            "negotiated_price": {
                                "negotiated_type": "negotiated",
                                "negotiated_rate": "118",
                                "expiration_date": "2021-12-31"
                            }
                        },
                        {
                            "providers": "1811908502",
                            "tin": "123456789",
                            "negotiated_price": {
                                "negotiated_type": "negotiated",
                                "negotiated_rate": "120",
                                "expiration_date": "2021-12-31"
                            }
                        },
                        {
                            "providers": "1962446831",
                            "tin": "123456789",
                            "negotiated_price": {
                                "negotiated_type": "negotiated",
                                "negotiated_rate": "123",
                                "expiration_date": "2021-12-31"
                            }
                        },
                        {
                            "providers": "1003108325,1568980621,1316311202,1316336076,1902143761,1902143716,1902143790",
                            "tin": "123456789",
                            "negotiated_price": {
                                "negotiated_type": "negotiated",
                                "negotiated_rate": "176",
                                "expiration_date": "2021-12-31"
                            }
                        }
                    ],
                    "bundled_codes": [
                        {
                            "billing_code_type": "CPT",
                            "billing_code_type_version": "2021",
                            "billing_code": "99173",
                            "description": "Eye test."
                        },
                        {
                            "billing_code_type": "CPT",
                            "billing_code_type_version": "2021",
                            "billing_code": "99244",
                            "description": "Patient office consultation, typically 60 min."
                        }
                    ]
                },
                {
                    "negotiation_arrangement": "bundle",
                    "name": "GLUCOSE TOLERANCE TEST",
                    "billing_code_type": "CPT",
                    "billing_code_type_version": "2021",
                    "billing_code": "82951",
                    "description": "Test to predict likelihood of gestational diabetes.",
                    "negotiated_rates": [
                        {
                            "providers": "1902143787",
                            "tin": "123456767",
                            "negotiated_price": {
                                "negotiated_type": "negotiated",
                                "negotiated_rate": "176",
                                "expiration_date": "2021-12-31"
                            }
                        },
                        {
                            "providers": "1578500443",
                            "tin": "123456787",
                            "negotiated_price": {
                                "negotiated_type": "negotiated",
                                "negotiated_rate": "176",
                                "expiration_date": "2021-12-31"
                            }
                        },
                        {
                            "providers": "1962435719",
                            "tin": "123456789",
                            "negotiated_price": {
                                "negotiated_type": "negotiated",
                                "negotiated_rate": "117",
                                "expiration_date": "2021-12-31"
                            }
                        },
                        {
                            "providers": "1922083948",
                            "tin": "123456789",
                            "negotiated_price": {
                                "negotiated_type": "negotiated",
                                "negotiated_rate": "118",
                                "expiration_date": "2021-12-31"
                            }
                        },
                        {
                            "providers": "1811908502",
                            "tin": "123456789",
                            "negotiated_price": {
                                "negotiated_type": "negotiated",
                                "negotiated_rate": "120",
                                "expiration_date": "2021-12-31"
                            }
                        },
                        {
                            "providers": "1962446831",
                            "tin": "123456789",
                            "negotiated_price": {
                                "negotiated_type": "negotiated",
                                "negotiated_rate": "123",
                                "expiration_date": "2021-12-31"
                            }
                        },
                        {
                            "providers": "1003108325,1568980621,1316311202,1316336076,1902143761,1902143716,1902143790",
                            "tin": "123456789",
                            "negotiated_price": {
                                "negotiated_type": "negotiated",
                                "negotiated_rate": "176",
                                "expiration_date": "2021-12-31"
                            }
                        }
                    ],
                    "bundled_codes": [
                        {
                            "billing_code_type": "CPT",
                            "billing_code_type_version": "2021",
                            "billing_code": "99173",
                            "description": "Eye test."
                        },
                        {
                            "billing_code_type": "CPT",
                            "billing_code_type_version": "2021",
                            "billing_code": "99244",
                            "description": "Patient office consultation, typically 60 min."
                        }
                    ]
                },
                {
                    "negotiation_arrangement": "bundle",
                    "name": "Total Knee Replacement",
                    "billing_code_type": "CPT",
                    "billing_code_type_version": "2021",
                    "billing_code": "470",
                    "description": "Major joint replacement or reattachment of lower extremity.",
                    "negotiated_rates": [
                        {
                            "providers": "1902143787",
                            "tin": "123456767",
                            "negotiated_price": {
                                "negotiated_type": "negotiated",
                                "negotiated_rate": "20134",
                                "expiration_date": "2021-12-31"
                            }
                        },
                        {
                            "providers": "1578500443",
                            "tin": "123456787",
                            "negotiated_price": {
                                "negotiated_type": "negotiated",
                                "negotiated_rate": "16754",
                                "expiration_date": "2021-12-31"
                            }
                        },
                        {
                            "providers": "1922083948,1316311202",
                            "tin": "123456789",
                            "negotiated_price": {
                                "negotiated_type": "negotiated",
                                "negotiated_rate": "17865",
                                "expiration_date": "2021-12-31"
                            }
                        },
                        {
                            "providers": "1316336076",
                            "tin": "123456789",
                            "negotiated_price": {
                                "negotiated_type": "negotiated",
                                "negotiated_rate": "18769",
                                "expiration_date": "2021-12-31"
                            }
                        },
                        {
                            "providers": "1962435719",
                            "tin": "123456789",
                            "negotiated_price": {
                                "negotiated_type": "negotiated",
                                "negotiated_rate": "18970",
                                "expiration_date": "2021-12-31"
                            }
                        },
                        {
                            "providers": "1962446831,1568980621,1902143761",
                            "tin": "123456789",
                            "negotiated_price": {
                                "negotiated_type": "negotiated",
                                "negotiated_rate": "19876",
                                "expiration_date": "2021-12-31"
                            }
                        },
                        {
                            "providers": "1811908502",
                            "tin": "123456789",
                            "negotiated_price": {
                                "negotiated_type": "negotiated",
                                "negotiated_rate": "20000",
                                "expiration_date": "2021-12-31"
                            }
                        },
                        {
                            "providers": "1902143716",
                            "tin": "123456789",
                            "negotiated_price": {
                                "negotiated_type": "negotiated",
                                "negotiated_rate": "20111",
                                "expiration_date": "2021-12-31"
                            }
                        },
                        {
                            "providers": "1902143790",
                            "tin": "123456789",
                            "negotiated_price": {
                                "negotiated_type": "negotiated",
                                "negotiated_rate": "20121",
                                "expiration_date": "2021-12-31"
                            }
                        },
                        {
                            "providers": "1003108325",
                            "tin": "123456789",
                            "negotiated_price": {
                                "negotiated_type": "negotiated",
                                "negotiated_rate": "20132",
                                "expiration_date": "2021-12-31"
                            }
                        }
                    ],
                    "bundled_codes": [
                        {
                            "billing_code_type": "CPT",
                            "billing_code_type_version": "2021",
                            "billing_code": "97010",
                            "description": "Use of external hot or cold packs."
                        },
                        {
                            "billing_code_type": "CPT",
                            "billing_code_type_version": "2021",
                            "billing_code": "97113",
                            "description": "Use of water for therapy/exercises."
                        }
                    ]
                },
                {
                    "negotiation_arrangement": "bundle",
                    "name": "CHEST XRAY",
                    "billing_code_type": "CPT",
                    "billing_code_type_version": "2021",
                    "billing_code": "71045",
                    "description": "Single view.",
                    "negotiated_rates": [
                        {
                            "providers": "1902143787",
                            "tin": "123456767",
                            "negotiated_price": {
                                "negotiated_type": "negotiated",
                                "negotiated_rate": "243",
                                "expiration_date": "2021-12-31"
                            }
                        },
                        {
                            "providers": "1578500443",
                            "tin": "123456787",
                            "negotiated_price": {
                                "negotiated_type": "negotiated",
                                "negotiated_rate": "251",
                                "expiration_date": "2021-12-31"
                            }
                        },
                        {
                            "providers": "1902143716",
                            "tin": "123456789",
                            "negotiated_price": {
                                "negotiated_type": "negotiated",
                                "negotiated_rate": "233",
                                "expiration_date": "2021-12-31"
                            }
                        },
                        {
                            "providers": "1902143790",
                            "tin": "123456789",
                            "negotiated_price": {
                                "negotiated_type": "negotiated",
                                "negotiated_rate": "244",
                                "expiration_date": "2021-12-31"
                            }
                        },
                        {
                            "providers": "1811908502,1922083948,1962435719,1962446831,1003108325,1568980621,1316311202,1316336076",
                            "tin": "123456789",
                            "negotiated_price": {
                                "negotiated_type": "negotiated",
                                "negotiated_rate": "251",
                                "expiration_date": "2021-12-31"
                            }
                        },
                        {
                            "providers": "1902143761",
                            "tin": "123456789",
                            "negotiated_price": {
                                "negotiated_type": "negotiated",
                                "negotiated_rate": "254",
                                "expiration_date": "2021-12-31"
                            }
                        }
                    ],
                    "bundled_codes": [
                        {
                            "billing_code_type": "CPT",
                            "billing_code_type_version": "2021",
                            "billing_code": "99173",
                            "description": "Eye test."
                        },
                        {
                            "billing_code_type": "CPT",
                            "billing_code_type_version": "2021",
                            "billing_code": "99244",
                            "description": "Patient office consultation, typically 60 min."
                        }
                    ]
                },
                {
                    "negotiation_arrangement": "bundle",
                    "name": "CHEST XRAY",
                    "billing_code_type": "CPT",
                    "billing_code_type_version": "2021",
                    "billing_code": "71046",
                    "description": "2 views, front and back.",
                    "negotiated_rates": [
                        {
                            "providers": "1902143787",
                            "tin": "123456767",
                            "negotiated_price": {
                                "negotiated_type": "negotiated",
                                "negotiated_rate": "265",
                                "expiration_date": "2021-12-31"
                            }
                        },
                        {
                            "providers": "1578500443",
                            "tin": "123456787",
                            "negotiated_price": {
                                "negotiated_type": "negotiated",
                                "negotiated_rate": "265",
                                "expiration_date": "2021-12-31"
                            }
                        },
                        {
                            "providers": "1811908502,1922083948,1962435719,1962446831,1003108325,1568980621,1316311202,1316336076,1902143761,1902143716,1902143790",
                            "tin": "123456789",
                            "negotiated_price": {
                                "negotiated_type": "negotiated",
                                "negotiated_rate": "265",
                                "expiration_date": "2021-12-31"
                            }
                        }
                    ],
                    "bundled_codes": [
                        {
                            "billing_code_type": "CPT",
                            "billing_code_type_version": "2021",
                            "billing_code": "99173",
                            "description": "Eye test."
                        },
                        {
                            "billing_code_type": "CPT",
                            "billing_code_type_version": "2021",
                            "billing_code": "99244",
                            "description": "Patient office consultation, typically 60 min."
                        }
                    ]
                },
                {
                    "negotiation_arrangement": "bundle",
                    "name": "MASSAGE THERAPY",
                    "billing_code_type": "CPT",
                    "billing_code_type_version": "2021",
                    "billing_code": "97124",
                    "description": "Use of massage.",
                    "negotiated_rates": [
                        {
                            "providers": "1902143787",
                            "tin": "123456767",
                            "negotiated_price": {
                                "negotiated_type": "negotiated",
                                "negotiated_rate": "76",
                                "expiration_date": "2021-12-31"
                            }
                        },
                        {
                            "providers": "1578500443",
                            "tin": "123456787",
                            "negotiated_price": {
                                "negotiated_type": "negotiated",
                                "negotiated_rate": "48",
                                "expiration_date": "2021-12-31"
                            }
                        },
                        {
                            "providers": "1568980621",
                            "tin": "123456789",
                            "negotiated_price": {
                                "negotiated_type": "negotiated",
                                "negotiated_rate": "45",
                                "expiration_date": "2021-12-31"
                            }
                        },
                        {
                            "providers": "1316311202",
                            "tin": "123456789",
                            "negotiated_price": {
                                "negotiated_type": "negotiated",
                                "negotiated_rate": "49",
                                "expiration_date": "2021-12-31"
                            }
                        },
                        {
                            "providers": "1811908502",
                            "tin": "123456789",
                            "negotiated_price": {
                                "negotiated_type": "negotiated",
                                "negotiated_rate": "54",
                                "expiration_date": "2021-12-31"
                            }
                        },
                        {
                            "providers": "1922083948",
                            "tin": "123456789",
                            "negotiated_price": {
                                "negotiated_type": "negotiated",
                                "negotiated_rate": "55",
                                "expiration_date": "2021-12-31"
                            }
                        },
                        {
                            "providers": "1962435719",
                            "tin": "123456789",
                            "negotiated_price": {
                                "negotiated_type": "negotiated",
                                "negotiated_rate": "56",
                                "expiration_date": "2021-12-31"
                            }
                        },
                        {
                            "providers": "1962446831,1316336076",
                            "tin": "123456789",
                            "negotiated_price": {
                                "negotiated_type": "negotiated",
                                "negotiated_rate": "65",
                                "expiration_date": "2021-12-31"
                            }
                        },
                        {
                            "providers": "1003108325",
                            "tin": "123456789",
                            "negotiated_price": {
                                "negotiated_type": "negotiated",
                                "negotiated_rate": "73",
                                "expiration_date": "2021-12-31"
                            }
                        },
                        {
                            "providers": "1902143790",
                            "tin": "123456789",
                            "negotiated_price": {
                                "negotiated_type": "negotiated",
                                "negotiated_rate": "76",
                                "expiration_date": "2021-12-31"
                            }
                        },
                        {
                            "providers": "1902143716",
                            "tin": "123456789",
                            "negotiated_price": {
                                "negotiated_type": "negotiated",
                                "negotiated_rate": "77",
                                "expiration_date": "2021-12-31"
                            }
                        },
                        {
                            "providers": "1902143761",
                            "tin": "123456789",
                            "negotiated_price": {
                                "negotiated_type": "negotiated",
                                "negotiated_rate": "78",
                                "expiration_date": "2021-12-31"
                            }
                        }
                    ],
                    "bundled_codes": [
                        {
                            "billing_code_type": "CPT",
                            "billing_code_type_version": "2021",
                            "billing_code": "99173",
                            "description": "Eye test."
                        },
                        {
                            "billing_code_type": "CPT",
                            "billing_code_type_version": "2021",
                            "billing_code": "99244",
                            "description": "Patient office consultation, typically 60 min."
                        }
                    ]
                },
                {
                    "negotiation_arrangement": "bundle",
                    "name": "POLYSOM 6/> YRS 4/> PARAM",
                    "billing_code_type": "CPT",
                    "billing_code_type_version": "2021",
                    "billing_code": "95810",
                    "description": "Sleep monitoring of patient (6 years or older) in sleep lab.",
                    "negotiated_rates": [
                        {
                            "providers": "1902143787",
                            "tin": "123456767",
                            "negotiated_price": {
                                "negotiated_type": "negotiated",
                                "negotiated_rate": "176",
                                "expiration_date": "2021-12-31"
                            }
                        },
                        {
                            "providers": "1578500443",
                            "tin": "123456787",
                            "negotiated_price": {
                                "negotiated_type": "negotiated",
                                "negotiated_rate": "176",
                                "expiration_date": "2021-12-31"
                            }
                        },
                        {
                            "providers": "1962435719",
                            "tin": "123456789",
                            "negotiated_price": {
                                "negotiated_type": "negotiated",
                                "negotiated_rate": "117",
                                "expiration_date": "2021-12-31"
                            }
                        },
                        {
                            "providers": "1922083948",
                            "tin": "123456789",
                            "negotiated_price": {
                                "negotiated_type": "negotiated",
                                "negotiated_rate": "118",
                                "expiration_date": "2021-12-31"
                            }
                        },
                        {
                            "providers": "1811908502",
                            "tin": "123456789",
                            "negotiated_price": {
                                "negotiated_type": "negotiated",
                                "negotiated_rate": "120",
                                "expiration_date": "2021-12-31"
                            }
                        },
                        {
                            "providers": "1962446831",
                            "tin": "123456789",
                            "negotiated_price": {
                                "negotiated_type": "negotiated",
                                "negotiated_rate": "123",
                                "expiration_date": "2021-12-31"
                            }
                        },
                        {
                            "providers": "1003108325,1568980621,1316311202,1316336076,1902143761,1902143716,1902143790",
                            "tin": "123456789",
                            "negotiated_price": {
                                "negotiated_type": "negotiated",
                                "negotiated_rate": "176",
                                "expiration_date": "2021-12-31"
                            }
                        }
                    ],
                    "bundled_codes": [
                        {
                            "billing_code_type": "CPT",
                            "billing_code_type_version": "2021",
                            "billing_code": "99173",
                            "description": "Eye test."
                        },
                        {
                            "billing_code_type": "CPT",
                            "billing_code_type_version": "2021",
                            "billing_code": "99244",
                            "description": "Patient office consultation, typically 60 min."
                        }
                    ]
                }
            ]
        }
    ]
}