{
    "reporting_entity_name": "Abc Inc",
    "reporting_entity_type": "ABC",
    "plan": [
        {
            "plan_name": "healthy life",
            "plan_id_type": "HIOS",
            "plan_id": "1234567543281",
            "plan_market_type": "individual",
            "last_updated_on": "2021-07-26",
            "drugs": [
                {
                    "drug_name": "amaryl",
                    "drug_type": "brand",
                    "ndc": "0039-0221-10",
                    "prices": [
                        {
                            "historical_net_price": "3",
                            "historical_net_reporting_period": "2021-06-28",
                            "negotiated_rate": "2",
                            "administrative_fee": "1",
                            "dispensing_fee": "3",
                            "transaction_fee": "0.05",
                            "tin": "11-111111",
                            "service_code": "1",
                            "npi": "11111111",
                            "pharmacies": [
                                {
                                    "pharmacy_id_type": "ncpdp chain code",
                                    "pharmacy_ids": "333333,222222,111111"
                                },
                                {
                                    "pharmacy_id_type": "ncpdp id",
                                    "pharmacy_ids": "4444444,22222222,1111111,333333"
                                },
                                {
                                    "pharmacy_id_type": "npi",
                                    "pharmacy_ids": "11111"
                                }
                            ]
                        }
                    ]
                },
                {
                    "drug_name": "Simvastatin",
                    "drug_type": "generic",
                    "ndc": "16729-004",
                    "prices": [
                        {
                            "historical_net_price": "0.01",
                            "historical_net_reporting_period": "2021-05-28",
                            "negotiated_rate": "0",
                            "administrative_fee": "0.02",
                            "dispensing_fee": "2",
                            "transaction_fee": "0.05",
                            "tin": "11-111111",
                            "service_code": "1",
                            "npi": "22222222",
                            "pharmacies": [
                                {
                                    "pharmacy_id_type": "ncpdp chain code",
                                    "pharmacy_ids": "222222,111111,333333"
                                },
                                {
                                    "pharmacy_id_type": "ncpdp id",
                                    "pharmacy_ids": "1111111,4444444,333333,22222222"
                                },
                                {
                                    "pharmacy_id_type": "npi",
                                    "pharmacy_ids": "22222,11111"
                                }
                            ]
                        }
                    ]
                },
                {
                    "drug_name": "ativan",
                    "drug_type": "brand",
                    "ndc": "500090-0192",
                    "prices": [
                        {
                            "historical_net_price": "4",
                            "historical_net_reporting_period": "2021-07-28",
                            "negotiated_rate": "2",
                            "administrative_fee": "1",
                            "dispensing_fee": "3",
                            "transaction_fee": "0.05",
                            "tin": "11-111111",
                            "service_code": "1",
                            "npi": "333333333",
                            "pharmacies": [
                                {
                                    "pharmacy_id_type": "ncpdp chain code",
                                    "pharmacy_ids": "111111"
                                },
                                {
                                    "pharmacy_id_type": "ncpdp id",
                                    "pharmacy_ids": "4444444,333333,22222222,1111111"
                                },
                                {
                                    "pharmacy_id_type": "npi",
                                    "pharmacy_ids": "22222"
                                }
                            ]
                        },
                        {
                            "historical_net_price": "4",
                            "historical_net_reporting_period": "2021-07-28",
                            "negotiated_rate": "2",
                            "administrative_fee": "2",
                            "dispensing_fee": "3",
                            "transaction_fee": "0.05",
                            "tin": "11-111111",
                            "service_code": "1",
                            "npi": "333333333",
                            "pharmacies": [
                                {
                                    "pharmacy_id_type": "ncpdp chain code",
                                    "pharmacy_ids": "222222"
                                }
                            ]
                        }
                    ]
                }
            ]
        }
    ]
}